^C:\USERS\ALEXM\DESKTOP\C++\1\THIRD\THIRD\THIRD.CPP
C:\USERS\ALEXM\DESKTOP\C++\1\THIRD\THIRD\X64\DEBUG\VC143.PDB
C:\USERS\ALEXM\DESKTOP\C++\1\THIRD\THIRD\X64\DEBUG\VC143.IDB
C:\USERS\ALEXM\DESKTOP\C++\1\THIRD\THIRD\X64\DEBUG\THIRD.OBJ
