^C:\USERS\ALEXM\DESKTOP\C++\1\THIRD\THIRD\X64\DEBUG\THIRD.OBJ
C:\USERS\ALEXM\DESKTOP\C++\1\THIRD\X64\DEBUG\THIRD.EXE
C:\USERS\ALEXM\DESKTOP\C++\1\THIRD\THIRD\X64\DEBUG\THIRD.ILK
C:\USERS\ALEXM\DESKTOP\C++\1\THIRD\X64\DEBUG\THIRD.PDB
